stm32u5xx_ll_adc.h:3171:22:LL_ADC_SetCommonPathInternalCh	16	static
stm32u5xx_ll_adc.h:3193:26:LL_ADC_GetCommonPathInternalCh	16	static
stm32u5xx_ll_adc.h:3238:22:LL_ADC_SetCalibrationOffsetFactor	24	static
stm32u5xx_ll_adc.h:3275:26:LL_ADC_GetCalibrationOffsetFactor	24	static
stm32u5xx_ll_adc.h:3668:22:LL_ADC_SetOffset	32	static
stm32u5xx_ll_adc.h:3742:26:LL_ADC_GetOffsetChannel	24	static
stm32u5xx_ll_adc.h:3797:22:LL_ADC_SetOffsetSign	32	static
stm32u5xx_ll_adc.h:3846:22:LL_ADC_SetOffsetSignedSaturation	32	static
stm32u5xx_ll_adc.h:4193:26:LL_ADC_REG_IsTriggerSourceSWStart	16	static
stm32u5xx_ll_adc.h:5710:26:LL_ADC_INJ_IsTriggerSourceSWStart	16	static
stm32u5xx_ll_adc.h:6018:26:LL_ADC_INJ_GetTrigAuto	16	static
stm32u5xx_ll_adc.h:6363:22:LL_ADC_SetChannelSamplingTime	56	static,ignoring_inline_asm
stm32u5xx_ll_adc.h:6551:22:LL_ADC_SetChannelSingleDiff	24	static
stm32u5xx_ll_adc.h:7546:22:LL_ADC_EnableDeepPowerDown	16	static
stm32u5xx_ll_adc.h:7617:22:LL_ADC_DisableInternalRegulator	16	static
stm32u5xx_ll_adc.h:7684:26:LL_ADC_IsEnabled	16	static
stm32u5xx_ll_adc.h:7730:22:LL_ADC_StartCalibration	16	static
stm32u5xx_ll_adc.h:7753:26:LL_ADC_IsCalibrationOnGoing	16	static
stm32u5xx_ll_adc.h:7818:26:LL_ADC_REG_IsConversionOngoing	16	static
stm32u5xx_ll_adc.h:7976:22:LL_ADC_INJ_StartConversion	16	static
stm32u5xx_ll_adc.h:8008:26:LL_ADC_INJ_IsConversionOngoing	16	static
stm32u5xx_hal_adc_ex.c:134:19:HAL_ADCEx_Calibration_Start	32	static
stm32u5xx_hal_adc_ex.c:201:10:HAL_ADCEx_Calibration_GetValue	24	static
stm32u5xx_hal_adc_ex.c:235:19:HAL_ADCEx_LinearCalibration_GetValue	24	static
stm32u5xx_hal_adc_ex.c:274:19:HAL_ADCEx_Calibration_SetValue	40	static
stm32u5xx_hal_adc_ex.c:323:19:HAL_ADCEx_LinearCalibration_SetValue	24	static
stm32u5xx_hal_adc_ex.c:406:19:HAL_ADCEx_InjectedStart	24	static
stm32u5xx_hal_adc_ex.c:537:19:HAL_ADCEx_InjectedStop	24	static
stm32u5xx_hal_adc_ex.c:587:19:HAL_ADCEx_InjectedPollForConversion	40	static
stm32u5xx_hal_adc_ex.c:723:19:HAL_ADCEx_InjectedStart_IT	24	static
stm32u5xx_hal_adc_ex.c:873:19:HAL_ADCEx_InjectedStop_IT	24	static
stm32u5xx_hal_adc_ex.c:1276:10:HAL_ADCEx_InjectedGetValue	24	static
stm32u5xx_hal_adc_ex.c:1310:13:HAL_ADCEx_InjectedConvCpltCallback	16	static
stm32u5xx_hal_adc_ex.c:1329:13:HAL_ADCEx_InjectedQueueOverflowCallback	16	static
stm32u5xx_hal_adc_ex.c:1344:13:HAL_ADCEx_LevelOutOfWindow2Callback	16	static
stm32u5xx_hal_adc_ex.c:1359:13:HAL_ADCEx_LevelOutOfWindow3Callback	16	static
stm32u5xx_hal_adc_ex.c:1375:13:HAL_ADCEx_EndOfSamplingCallback	16	static
stm32u5xx_hal_adc_ex.c:1393:19:HAL_ADCEx_RegularStop	24	static
stm32u5xx_hal_adc_ex.c:1446:19:HAL_ADCEx_RegularStop_IT	24	static
stm32u5xx_hal_adc_ex.c:1501:19:HAL_ADCEx_RegularStop_DMA	24	static
stm32u5xx_hal_adc_ex.c:1753:19:HAL_ADCEx_InjectedConfigChannel	216	static,ignoring_inline_asm
stm32u5xx_hal_adc_ex.c:2314:19:HAL_ADCEx_DisableVoltageRegulator	24	static
stm32u5xx_hal_adc_ex.c:2351:19:HAL_ADCEx_EnterADCDeepPowerDownMode	24	static
